%YAML 1.1
%TAG !u! tag:unity3d.com,2011:
--- !u!114 &11400000
MonoBehaviour:
  m_ObjectHideFlags: 0
  m_PrefabParentObject: {fileID: 0}
  m_PrefabInternal: {fileID: 0}
  m_GameObject: {fileID: 0}
  m_Enabled: 1
  m_EditorHideFlags: 0
  m_Script: {fileID: 11500000, guid: 5d56aa5da76c487419509c53375392f5, type: 3}
  m_Name: MageCard3
  m_EditorClassIdentifier: 
  cardType: 0
  treasureType: 1
  cardImage: {fileID: 21300000, guid: 71e4ce73f379cd347934db26f0efff30, type: 3}
  captionMain: Mag
  heroName: "Tymon i magiczny B\u0105bel"
  description: Opis maga
  health: 4
