%YAML 1.1
%TAG !u! tag:unity3d.com,2011:
--- !u!114 &11400000
MonoBehaviour:
  m_ObjectHideFlags: 0
  m_PrefabParentObject: {fileID: 0}
  m_PrefabInternal: {fileID: 0}
  m_GameObject: {fileID: 0}
  m_Enabled: 1
  m_EditorHideFlags: 0
  m_Script: {fileID: 11500000, guid: 5d56aa5da76c487419509c53375392f5, type: 3}
  m_Name: MageCard4
  m_EditorClassIdentifier: 
  cardType: 1
  treasureType: 1
  cardImage: {fileID: 21300000, guid: de99b10a28a4a7c4cb0b45242373a4a2, type: 3}
  captionMain: Mag
  heroName: "Teodor Wojenny He\u0142m, P\xF3\u0142elf Arcymag "
  description: Opis maga
  health: 13
