%YAML 1.1
%TAG !u! tag:unity3d.com,2011:
--- !u!114 &11400000
MonoBehaviour:
  m_ObjectHideFlags: 0
  m_PrefabParentObject: {fileID: 0}
  m_PrefabInternal: {fileID: 0}
  m_GameObject: {fileID: 0}
  m_Enabled: 1
  m_EditorHideFlags: 0
  m_Script: {fileID: 11500000, guid: 5d56aa5da76c487419509c53375392f5, type: 3}
  m_Name: PriestCard4
  m_EditorClassIdentifier: 
  cardType: 1
  treasureType: 3
  cardImage: {fileID: 21300000, guid: 37c1c7740058ab248a698f1aa7004ebc, type: 3}
  captionMain: "Kap\u0142an"
  heroName: Lord Van Ette
  description: "Opis kap\u0142ana"
  health: 13
