%YAML 1.1
%TAG !u! tag:unity3d.com,2011:
--- !u!114 &11400000
MonoBehaviour:
  m_ObjectHideFlags: 0
  m_PrefabParentObject: {fileID: 0}
  m_PrefabInternal: {fileID: 0}
  m_GameObject: {fileID: 0}
  m_Enabled: 1
  m_EditorHideFlags: 0
  m_Script: {fileID: 11500000, guid: 5d56aa5da76c487419509c53375392f5, type: 3}
  m_Name: PriestCard5
  m_EditorClassIdentifier: 
  cardType: 1
  treasureType: 3
  cardImage: {fileID: 21300000, guid: 4b3a851229506c140a2d4742210760d2, type: 3}
  captionMain: "Kap\u0142an"
  heroName: Katarzyna, Anielska Uzdrowicielka
  description: "Opis kap\u0142anki"
  health: 11
