%YAML 1.1
%TAG !u! tag:unity3d.com,2011:
--- !u!114 &11400000
MonoBehaviour:
  m_ObjectHideFlags: 0
  m_PrefabParentObject: {fileID: 0}
  m_PrefabInternal: {fileID: 0}
  m_GameObject: {fileID: 0}
  m_Enabled: 1
  m_EditorHideFlags: 0
  m_Script: {fileID: 11500000, guid: 5d56aa5da76c487419509c53375392f5, type: 3}
  m_Name: ThiefCard3
  m_EditorClassIdentifier: 
  cardType: 0
  treasureType: 0
  cardImage: {fileID: 21300000, guid: dc912acf04f1e8e49b10a9b23887d2c4, type: 3}
  captionMain: "Z\u0142odziej"
  heroName: Joman Chimm, Kieszonkowiec
  description: "Opis z\u0142odzieja"
  health: 4
