%YAML 1.1
%TAG !u! tag:unity3d.com,2011:
--- !u!114 &11400000
MonoBehaviour:
  m_ObjectHideFlags: 0
  m_PrefabParentObject: {fileID: 0}
  m_PrefabInternal: {fileID: 0}
  m_GameObject: {fileID: 0}
  m_Enabled: 1
  m_EditorHideFlags: 0
  m_Script: {fileID: 11500000, guid: 5d56aa5da76c487419509c53375392f5, type: 3}
  m_Name: ThiefCard5
  m_EditorClassIdentifier: 
  cardType: 1
  treasureType: 0
  cardImage: {fileID: 21300000, guid: a01095020bee8564690c830abfb5f343, type: 3}
  captionMain: "Z\u0142odziej"
  heroName: Hadziaa, Legendarny Shinobi
  description: "Opis z\u0142odzieja"
  health: 11
