%YAML 1.1
%TAG !u! tag:unity3d.com,2011:
--- !u!114 &11400000
MonoBehaviour:
  m_ObjectHideFlags: 0
  m_PrefabParentObject: {fileID: 0}
  m_PrefabInternal: {fileID: 0}
  m_GameObject: {fileID: 0}
  m_Enabled: 1
  m_EditorHideFlags: 0
  m_Script: {fileID: 11500000, guid: 1b00b73ea05a50f4d8ac68905e8a7f61, type: 3}
  m_Name: PotwornyMonument
  m_EditorClassIdentifier: 
  cardType: 3
  chamberLevel: 0
  captionMain: Potworny monument
  description: "Kiedy zbudujesz t\u0119 komnat\u0119, wybierz jedn\u0105 komnat\u0119
    potwor\xF3w ze stosu kart odrzuconych i we\u017A j\u0105 na r\u0119k\u0119."
  cardImage: {fileID: 21300000, guid: 100773c6b1f833e45bdc0c2508026dfd, type: 3}
  treasureTypes: 0200000003000000
  damage: 1
  amount: 2
