%YAML 1.1
%TAG !u! tag:unity3d.com,2011:
--- !u!114 &11400000
MonoBehaviour:
  m_ObjectHideFlags: 0
  m_PrefabParentObject: {fileID: 0}
  m_PrefabInternal: {fileID: 0}
  m_GameObject: {fileID: 0}
  m_Enabled: 1
  m_EditorHideFlags: 0
  m_Script: {fileID: 11500000, guid: 1b00b73ea05a50f4d8ac68905e8a7f61, type: 3}
  m_Name: Szczekoskrzynki
  m_EditorClassIdentifier: 
  cardType: 3
  chamberLevel: 0
  captionMain: "Szcz\u0119koskrzynki"
  description: "Kiedy zbudujesz t\u0119 komnat\u0119, wybierz jednego typowego bohatera
    w mie\u015Bcie i po\u0142\xF3\u017C go przed wej\u015Bciem do Twoich podziemi."
  cardImage: {fileID: 21300000, guid: f31fac7b9ae7d9348ae27fc366b0a68c, type: 3}
  treasureTypes: 0000000001000000
  damage: 1
  amount: 2
