%YAML 1.1
%TAG !u! tag:unity3d.com,2011:
--- !u!114 &11400000
MonoBehaviour:
  m_ObjectHideFlags: 0
  m_PrefabParentObject: {fileID: 0}
  m_PrefabInternal: {fileID: 0}
  m_GameObject: {fileID: 0}
  m_Enabled: 1
  m_EditorHideFlags: 0
  m_Script: {fileID: 11500000, guid: 3d9bcf0cce9dfd545a0acdde6bc44508, type: 3}
  m_Name: KrolRopuch
  m_EditorClassIdentifier: 
  captionMain: "Kr\xF3l Ropuch"
  captionSmaller: "Su\u0142tan rynsztok\xF3w"
  description: "Przejrzyj tali\u0119 komnat lub stos kart odrzuconych w poszukiwaniu
    wypa\u015Bnej komnaty potwor\xF3w. Mo\u017Cesz natychmiast zbudowa\u0107 t\u0119
    komnat\u0119. (Na wierzchu komnaty z pasuj\u0105cym rodzajem skarbu)."
  cardImage: {fileID: 21300000, guid: 038b45e7a02cd81458db0ee229431c1e, type: 3}
  treasureType: 2
  pd: 800
