%YAML 1.1
%TAG !u! tag:unity3d.com,2011:
--- !u!114 &11400000
MonoBehaviour:
  m_ObjectHideFlags: 0
  m_PrefabParentObject: {fileID: 0}
  m_PrefabInternal: {fileID: 0}
  m_GameObject: {fileID: 0}
  m_Enabled: 1
  m_EditorHideFlags: 0
  m_Script: {fileID: 11500000, guid: 3d9bcf0cce9dfd545a0acdde6bc44508, type: 3}
  m_Name: Robobo
  m_EditorClassIdentifier: 
  captionMain: Robobo
  captionSmaller: Golem-demolka
  description: "Ka\u017Cdy przeciwnik musi wybra\u0107 i zniszczy\u0107 jedn\u0105
    komnat\u0119 w swoich podziemiach."
  cardImage: {fileID: 21300000, guid: f3002a5e74abb144aa74a84d5da4e7b5, type: 3}
  treasureType: 2
  pd: 400
